Assignment 3 - CRD
…
Now, import the data set wheat_nk_bamyan.csv in the chunk below.

df <- read_csv("../Data/wheat_nk_bamyan.csv")

Rows: 36 Columns: 5
── Column specification ────────────────────────────────────────────────────────
Delimiter: ","
dbl (5): trt, rep, nrate_kgha, krate_kgha, yield_kgha

ℹ Use `spec()` to retrieve the full column specification for this data.
ℹ Specify the column types or set `show_col_types = FALSE` to quiet this message.

df

# A tibble: 36 × 5
     trt   rep nrate_kgha krate_kgha yield_kgha
   <dbl> <dbl>      <dbl>      <dbl>      <dbl>
 1     1     1          0          0       1350
 2     2     1          0         30       2110
 3     3     1          0         60       5725
 4     4     1        100          0       2988
 5     5     1        100         30       3438
 6     6     1        100         60       6525
 7     7     1        200          0       2825
 8     8     1        200         30       4400
 9     9     1        200         60       7025
10     1     2          0          0       2250
# ℹ 26 more rows
…
c) Wrangling

Here, make sure to wrangle your data set with all needed steps. Refer back to class code if you need a refresher on what was needed. As seen on the above table, all data are in dbl format. For better analysis, we need to convert rep, nrate and krate to factor, which will be done by the following chunk.

wrangled <- df %>% 
  mutate(rep = factor(rep),
         nrate_kgha = factor(nrate_kgha),
         krate_kgha = factor(krate_kgha),
         trtname = paste0(nrate_kgha, "+", krate_kgha), .before = yield_kgha
         )

wrangled

# A tibble: 36 × 6
     trt rep   nrate_kgha krate_kgha trtname yield_kgha
   <dbl> <fct> <fct>      <fct>      <chr>        <dbl>
 1     1 1     0          0          0+0           1350
 2     2 1     0          30         0+30          2110
 3     3 1     0          60         0+60          5725
 4     4 1     100        0          100+0         2988
 5     5 1     100        30         100+30        3438
 6     6 1     100        60         100+60        6525
 7     7 1     200        0          200+0         2825
 8     8 1     200        30         200+30        4400
 9     9 1     200        60         200+60        7025
10     1 2     0          0          0+0           2250
# ℹ 26 more rows
…
Based on the ANOVA table, there is no significant interaction effects and hence we proceed to testing the effects of indivitual treatments which are both significant.

g) Linear model assumptions

Use this section to first compute your residuals, including studentdized residuals.

Question 3) What are the linear model assumptions that we need to check for? Create subsections (using ##) below for each of these assumptions, and write code to produce plots to check for these assumptions. For each assumption, write down your interpretation of the produced plots, and your thoughts if the assumptions hold or not.

Extracting residuals

resid <- augment(mod) %>% 
  mutate(.studresid = rstudent(mod))
resid

# A tibble: 36 × 10
   yield_kgha nrate_kgha krate_kgha .fitted  .resid  .hat .sigma  .cooksd
        <dbl> <fct>      <fct>        <dbl>   <dbl> <dbl>  <dbl>    <dbl>
 1       1350 0          0            1503.  -153.  0.25   1149. 0.000908
 2       2110 0          30           2850.  -740.  0.25   1138. 0.0213  
 3       5725 0          60           4426.  1299.  0.250  1112. 0.0655  
 4       2988 100        0            2344.   644.  0.25   1141. 0.0161  
 5       3438 100        30           4224.  -786.  0.25   1136. 0.0239  
 6       6525 100        60           5351   1174   0.25   1119. 0.0535  
 7       2825 200        0            2891.   -66.5 0.25   1150. 0.000172
 8       4400 200        30           5618. -1218.  0.25   1116. 0.0576  
 9       7025 200        60           5334   1691   0.25   1084. 0.111   
10       2250 0          0            1503.   747.  0.25   1137. 0.0216  
# ℹ 26 more rows
# ℹ 2 more variables: .std.resid <dbl>, .studresid <dbl>
…
